^C:\USERS\YAKOV ISSAKOV\SOURCE\REPOS\PROJECT SPELLING\PROJECT SPELLING\DICTIONARY.CPP
/c /ZI /JMC /nologo /W3 /WX- /diagnostics:column /sdl /Od /D _DEBUG /D _CONSOLE /D _UNICODE /D UNICODE /Gm- /EHsc /RTC1 /MDd /GS /fp:precise /Zc:wchar_t /Zc:forScope /Zc:inline /permissive- /Fo"X64\DEBUG\\" /Fd"X64\DEBUG\VC143.PDB" /external:W3 /Gd /TP /FC C:\USERS\YAKOV ISSAKOV\SOURCE\REPOS\PROJECT SPELLING\PROJECT SPELLING\DICTIONARY.CPP
^C:\USERS\YAKOV ISSAKOV\SOURCE\REPOS\PROJECT SPELLING\PROJECT SPELLING\WORD.CPP
/c /ZI /JMC /nologo /W3 /WX- /diagnostics:column /sdl /Od /D _DEBUG /D _CONSOLE /D _UNICODE /D UNICODE /Gm- /EHsc /RTC1 /MDd /GS /fp:precise /Zc:wchar_t /Zc:forScope /Zc:inline /permissive- /Fo"X64\DEBUG\\" /Fd"X64\DEBUG\VC143.PDB" /external:W3 /Gd /TP /FC C:\USERS\YAKOV ISSAKOV\SOURCE\REPOS\PROJECT SPELLING\PROJECT SPELLING\WORD.CPP
^C:\USERS\YAKOV ISSAKOV\SOURCE\REPOS\PROJECT SPELLING\PROJECT SPELLING\SENTENCE.CPP
/c /ZI /JMC /nologo /W3 /WX- /diagnostics:column /sdl /Od /D _DEBUG /D _CONSOLE /D _UNICODE /D UNICODE /Gm- /EHsc /RTC1 /MDd /GS /fp:precise /Zc:wchar_t /Zc:forScope /Zc:inline /permissive- /Fo"X64\DEBUG\\" /Fd"X64\DEBUG\VC143.PDB" /external:W3 /Gd /TP /FC C:\USERS\YAKOV ISSAKOV\SOURCE\REPOS\PROJECT SPELLING\PROJECT SPELLING\SENTENCE.CPP
^C:\USERS\YAKOV ISSAKOV\SOURCE\REPOS\PROJECT SPELLING\PROJECT SPELLING\PROJECT SPELLING.CPP
/c /ZI /JMC /nologo /W3 /WX- /diagnostics:column /sdl /Od /D _DEBUG /D _CONSOLE /D _UNICODE /D UNICODE /Gm- /EHsc /RTC1 /MDd /GS /fp:precise /Zc:wchar_t /Zc:forScope /Zc:inline /permissive- /Fo"X64\DEBUG\\" /Fd"X64\DEBUG\VC143.PDB" /external:W3 /Gd /TP /FC C:\USERS\YAKOV ISSAKOV\SOURCE\REPOS\PROJECT SPELLING\PROJECT SPELLING\PROJECT SPELLING.CPP
