^C:\USERS\YAKOV ISSAKOV\SOURCE\REPOS\PROJECT SPELLING\PROJECT SPELLING\PROJECT SPELLING.CPP
C:\USERS\YAKOV ISSAKOV\SOURCE\REPOS\PROJECT SPELLING\PROJECT SPELLING\X64\DEBUG\VC143.PDB
C:\USERS\YAKOV ISSAKOV\SOURCE\REPOS\PROJECT SPELLING\PROJECT SPELLING\X64\DEBUG\VC143.IDB
C:\USERS\YAKOV ISSAKOV\SOURCE\REPOS\PROJECT SPELLING\PROJECT SPELLING\X64\DEBUG\PROJECT SPELLING.OBJ
